{
  "space00": {
    "x": 0,
    "y": 0,
    "w": 48,
    "h": 16,
    "r": 0
  },
  "space01": {
    "x": 48,
    "y": 0,
    "w": 48,
    "h": 16,
    "r": 0
  },
  "mark00": {
    "x": 96,
    "y": 0,
    "w": 48,
    "h": 16,
    "r": 0
  },
  "mark01": {
    "x": 144,
    "y": 0,
    "w": 48,
    "h": 16,
    "r": 0
  },
  "04": {
    "x": 192,
    "y": 0,
    "w": 48,
    "h": 16,
    "r": 0
  },
  "05": {
    "x": 0,
    "y": 16,
    "w": 48,
    "h": 16,
    "r": 0
  },
  "06": {
    "x": 48,
    "y": 16,
    "w": 48,
    "h": 16,
    "r": 0
  },
  "07": {
    "x": 96,
    "y": 16,
    "w": 48,
    "h": 16,
    "r": 0
  }
}
